Practical Four – Statistical Computing Pracs - Yo-Jen Chen
…
Question 6:

##Identify routes that have more than one airline flies

routes <- flights |> 
            group_by(origin, dest) |> 
            summarise(num_carriers = n_distinct(carrier), .groups = "drop") |> 
            filter(num_carriers > 1)
routes

# A tibble: 128 × 3
   origin dest  num_carriers
   <chr>  <chr>        <int>
 1 EWR    ATL              4
 2 EWR    AUS              2
 3 EWR    BDL              2
 4 EWR    BNA              2
 5 EWR    BOS              3
 6 EWR    BWI              2
 7 EWR    CHS              2
 8 EWR    CLE              2
 9 EWR    CLT              3
10 EWR    CVG              2
# ℹ 118 more rows

##For each such route, calculate the average arrival delay for each airline (exclude NAs). Find the names of these airlines.

avg_delays <- flights |> 
                inner_join(routes, by = c("origin", "dest")) |>
                group_by(origin, dest, carrier) |> 
                summarise(avg_arr_delay = mean(arr_delay, na.rm =TRUE), .groups = "drop") |> 
                inner_join(airlines, by = "carrier") |> 
                relocate(Airline_name = name, .before = avg_arr_delay)
avg_delays

# A tibble: 343 × 5
   origin dest  carrier Airline_name             avg_arr_delay
   <chr>  <chr> <chr>   <chr>                            <dbl>
 1 EWR    ATL   9E      Endeavor Air Inc.                -6.25
 2 EWR    ATL   DL      Delta Air Lines Inc.             10.0 
 3 EWR    ATL   EV      ExpressJet Airlines Inc.         19.5 
 4 EWR    ATL   UA      United Air Lines Inc.            10.5 
 5 EWR    AUS   UA      United Air Lines Inc.             4.28
 6 EWR    AUS   WN      Southwest Airlines Co.          -11.2 
 7 EWR    BDL   EV      ExpressJet Airlines Inc.          6.78
 8 EWR    BDL   UA      United Air Lines Inc.            22.6 
 9 EWR    BNA   EV      ExpressJet Airlines Inc.         17.7 
10 EWR    BNA   WN      Southwest Airlines Co.           -2.13
# ℹ 333 more rows

##For each such route, identify the airline with the worst and best average arrival delay.

best_worst <- avg_delays |> 
  group_by(origin, dest) |> 
  summarise(worst_airline = Airline_name[which.max(avg_arr_delay)],
            worst_arr_delay = max(avg_arr_delay),
            best_airline = Airline_name[which.min(avg_arr_delay)],
            best_arr_delay = min(avg_arr_delay),
            .groups = "drop")
best_worst

# A tibble: 128 × 6
   origin dest  worst_airline        worst_arr_delay best_airline best_arr_delay
   <chr>  <chr> <chr>                          <dbl> <chr>                 <dbl>
 1 EWR    ATL   ExpressJet Airlines…           19.5  Endeavor Ai…         -6.25 
 2 EWR    AUS   United Air Lines In…            4.28 Southwest A…        -11.2  
 3 EWR    BDL   United Air Lines In…           22.6  ExpressJet …          6.78 
 4 EWR    BNA   ExpressJet Airlines…           17.7  Southwest A…         -2.13 
 5 EWR    BOS   JetBlue Airways                 6.87 ExpressJet …         -4.01 
 6 EWR    BWI   ExpressJet Airlines…           20.1  Southwest A…          5.95 
 7 EWR    CHS   ExpressJet Airlines…           16.2  United Air …        -14    
 8 EWR    CLE   United Air Lines In…            5.97 ExpressJet …         -3.71 
 9 EWR    CLT   ExpressJet Airlines…           20.5  US Airways …          0.920
10 EWR    CVG   ExpressJet Airlines…           21.2  Endeavor Ai…          1.40 
# ℹ 118 more rows
…
